<?xml version="1.0" encoding="UTF-8" standalone="no"?>
<!-- Created with Inkscape (http://www.inkscape.org/) -->

<svg
   xmlns:dc="http://purl.org/dc/elements/1.1/"
   xmlns:cc="http://creativecommons.org/ns#"
   xmlns:rdf="http://www.w3.org/1999/02/22-rdf-syntax-ns#"
   xmlns:svg="http://www.w3.org/2000/svg"
   xmlns="http://www.w3.org/2000/svg"
   xmlns:sodipodi="http://sodipodi.sourceforge.net/DTD/sodipodi-0.dtd"
   xmlns:inkscape="http://www.inkscape.org/namespaces/inkscape"
   width="1370.9996mm"
   height="761.99969mm"
   viewBox="0 0 1370.9996 761.9997"
   version="1.1"
   id="svg16"
   sodipodi:docname="Machine Layout_v2.svg"
   inkscape:version="0.92.4 (5da689c313, 2019-01-14)"
   inkscape:export-filename="C:\Projects\Lead tinning machine\Machine Layout.png"
   inkscape:export-xdpi="480"
   inkscape:export-ydpi="480">
  <defs
     id="defs10" />
  <sodipodi:namedview
     id="base"
     pagecolor="#ffffff"
     bordercolor="#666666"
     borderopacity="1.0"
     inkscape:pageopacity="0.0"
     inkscape:pageshadow="2"
     inkscape:zoom="0.24748737"
     inkscape:cx="2563.868"
     inkscape:cy="1238.5227"
     inkscape:document-units="mm"
     inkscape:current-layer="layer1"
     showgrid="false"
     inkscape:window-width="1920"
     inkscape:window-height="1017"
     inkscape:window-x="-8"
     inkscape:window-y="-8"
     inkscape:window-maximized="1"
     inkscape:snap-bbox="false"
     inkscape:snap-grids="true"
     fit-margin-top="0"
     fit-margin-left="0"
     fit-margin-right="0"
     fit-margin-bottom="0"
     inkscape:snap-global="false" />
  <metadata
     id="metadata13">
    <rdf:RDF>
      <cc:Work
         rdf:about="">
        <dc:format>image/svg+xml</dc:format>
        <dc:type
           rdf:resource="http://purl.org/dc/dcmitype/StillImage" />
        <dc:title></dc:title>
      </cc:Work>
    </rdf:RDF>
  </metadata>
  <g
     inkscape:groupmode="layer"
     id="layer2"
     inkscape:label="Base"
     sodipodi:insensitive="true"
     transform="translate(522.88494,21.680862)">
    <rect
       transform="translate(-522.88509,-318.68102)"
       id="rect25"
       width="1364.5757"
       height="755.57568"
       x="3.2121456"
       y="300.21216"
       style="fill:#d45500;stroke:#333333;stroke-width:6.42399979;stroke-miterlimit:4;stroke-dasharray:none" />
  </g>
  <g
     inkscape:label="Layer 1"
     inkscape:groupmode="layer"
     id="layer1"
     transform="translate(-1.4567375e-4,-297.00017)">
    <g
       id="g5231"
       transform="translate(-106.90781,-43.832202)">
      <rect
         y="351.67712"
         x="431.82712"
         height="198.39856"
         width="353.39859"
         id="rect4540"
         style="fill:#000080;stroke:#000000;stroke-width:1.60144365;stroke-miterlimit:4;stroke-dasharray:none;stroke-opacity:1" />
      <text
         transform="scale(0.6903021,1.4486411)"
         id="text4627-9-1"
         y="293.30722"
         x="883.9126"
         style="font-style:normal;font-weight:normal;font-size:62.1089592px;line-height:1.25;font-family:sans-serif;letter-spacing:0px;word-spacing:0px;fill:#ff0000;fill-opacity:1;stroke:none;stroke-width:1.55272388"
         xml:space="preserve"><tspan
           style="text-align:center;text-anchor:middle;fill:#ff0000;stroke-width:1.55272388"
           y="293.30722"
           x="894.8302"
           id="tspan4625-9-5"
           sodipodi:role="line">Solder fountain </tspan><tspan
           id="tspan4647-9"
           style="text-align:center;text-anchor:middle;fill:#ff0000;stroke-width:1.55272388"
           y="370.94342"
           x="883.9126"
           sodipodi:role="line">Heater</tspan></text>
    </g>
    <g
       id="g5206"
       transform="translate(-48.108509,178.53605)">
      <rect
         y="297.1734"
         x="1098.7823"
         height="258.46735"
         width="248.46733"
         id="rect4540-0"
         style="fill:#000080;stroke:#000000;stroke-width:1.53266585;stroke-miterlimit:4;stroke-dasharray:none;stroke-opacity:1" />
      <text
         transform="scale(0.50668198,1.9736246)"
         id="text4627-9-1-8"
         y="201.61331"
         x="2408.8743"
         style="font-style:normal;font-weight:normal;font-size:59.99881363px;line-height:1.25;font-family:sans-serif;letter-spacing:0px;word-spacing:0px;fill:#ff0000;fill-opacity:1;stroke:none;stroke-width:1.4999702"
         xml:space="preserve"><tspan
           style="text-align:center;text-anchor:middle;fill:#ff0000;stroke-width:1.4999702"
           y="201.61331"
           x="2419.4209"
           id="tspan4625-9-5-7"
           sodipodi:role="line">Solder fountain </tspan><tspan
           id="tspan4647-9-3"
           style="text-align:center;text-anchor:middle;fill:#ff0000;stroke-width:1.4999702"
           y="276.61182"
           x="2408.8743"
           sodipodi:role="line">Controller</tspan></text>
    </g>
    <rect
       style="fill:#ffd42a;stroke:#000000;stroke-width:6.75457478;stroke-miterlimit:4;stroke-dasharray:none;stroke-opacity:1"
       id="rect4542-9"
       width="914.68451"
       height="374.24542"
       x="18.837994"
       y="513.55341" />
    <rect
       style="fill:#808080;stroke:#000000;stroke-width:6.4390893;stroke-miterlimit:4;stroke-dasharray:none;stroke-opacity:1"
       id="rect4542"
       width="753.56091"
       height="339.98489"
       x="98.680252"
       y="527.68707" />
    <g
       id="g5108"
       transform="translate(-164.63803,-48.108515)">
      <rect
         y="578.1355"
         x="511.13547"
         height="335.72906"
         width="335.72906"
         id="rect4542-2"
         style="fill:#000080;stroke:#ff0000;stroke-width:4.27094889;stroke-miterlimit:4;stroke-dasharray:none;stroke-opacity:1" />
      <circle
         r="100.27271"
         cy="746"
         cx="679"
         id="path4574"
         style="fill:#c8b7b7;stroke:#666666;stroke-width:15.45457554;stroke-miterlimit:4;stroke-dasharray:none;stroke-opacity:1" />
      <circle
         r="14.855217"
         cy="742.85004"
         cx="679"
         id="path4574-0"
         style="fill:#666666;stroke:#ff0000;stroke-width:2.28956676;stroke-miterlimit:4;stroke-dasharray:none;stroke-opacity:1" />
      <text
         transform="scale(0.64448242,1.5516327)"
         id="text4627-9"
         y="416.46655"
         x="1055.4937"
         style="font-style:normal;font-weight:normal;font-size:53.60778427px;line-height:1.25;font-family:sans-serif;letter-spacing:0px;word-spacing:0px;fill:#ff0000;fill-opacity:1;stroke:none;stroke-width:1.3401947"
         xml:space="preserve"><tspan
           id="tspan4647"
           style="text-align:center;text-anchor:middle;fill:#ff0000;stroke-width:1.3401947"
           y="416.46655"
           x="1064.9169"
           sodipodi:role="line">Solder fountain </tspan></text>
    </g>
    <flowRoot
       xml:space="preserve"
       id="flowRoot4649"
       style="font-style:normal;font-weight:normal;font-size:40px;line-height:1.25;font-family:sans-serif;letter-spacing:0px;word-spacing:0px;fill:#000000;fill-opacity:1;stroke:none"
       transform="matrix(0.26458333,0,0,0.26458333,0,297.00001)"><flowRegion
         id="flowRegion4651"><rect
           id="rect4653"
           width="34.285713"
           height="74.285713"
           x="2320"
           y="331.42856" /></flowRegion><flowPara
         id="flowPara4655" /></flowRoot>    <flowRoot
       xml:space="preserve"
       id="flowRoot4657"
       style="font-style:normal;font-weight:normal;font-size:40px;line-height:1.25;font-family:sans-serif;letter-spacing:0px;word-spacing:0px;fill:#000000;fill-opacity:1;stroke:none"
       transform="matrix(0.26458333,0,0,0.26458333,0,297.00001)"><flowRegion
         id="flowRegion4659"><rect
           id="rect4661"
           width="142.85715"
           height="131.42857"
           x="2257.1428"
           y="234.28572" /></flowRegion><flowPara
         id="flowPara4663" /></flowRoot>    <flowRoot
       xml:space="preserve"
       id="flowRoot4665"
       style="font-style:normal;font-weight:normal;font-size:40px;line-height:1.25;font-family:sans-serif;letter-spacing:0px;word-spacing:0px;fill:#000000;fill-opacity:1;stroke:none"
       transform="matrix(0.26458333,0,0,0.26458333,0,297.00001)"><flowRegion
         id="flowRegion4667"><rect
           id="rect4669"
           width="80"
           height="120"
           x="2160"
           y="251.42857" /></flowRegion><flowPara
         id="flowPara4671" /></flowRoot>    <g
       id="g5101"
       transform="translate(-187.08867,-43.8322)">
      <rect
         y="771.49786"
         x="890.07574"
         height="100.13095"
         width="128.88077"
         id="rect4591-1"
         style="fill:#b3b3b3;stroke:#000000;stroke-width:5.05015993;stroke-miterlimit:4;stroke-dasharray:none;stroke-opacity:1" />
      <rect
         y="782.32141"
         x="975.17853"
         height="34.773811"
         width="31.75"
         id="rect4685"
         style="fill:#ff0000;stroke:#000000;stroke-width:6.42400026;stroke-miterlimit:4;stroke-dasharray:none;stroke-opacity:1" />
      <rect
         y="788.80261"
         x="916.64783"
         height="14.251953"
         width="14.251951"
         id="rect4685-8"
         style="fill:#00ff00;stroke:#000000;stroke-width:2.75538254;stroke-miterlimit:4;stroke-dasharray:none;stroke-opacity:1" />
      <text
         transform="scale(0.62279384,1.6056678)"
         id="text4627-7"
         y="540.0014"
         x="1434.6517"
         style="font-style:normal;font-weight:normal;font-size:39.50997543px;line-height:1.25;font-family:sans-serif;letter-spacing:0px;word-spacing:0px;fill:#ff0000;fill-opacity:1;stroke:none;stroke-width:0.9877494"
         xml:space="preserve"><tspan
           style="fill:#ff0000;stroke-width:0.9877494"
           y="540.0014"
           x="1434.6517"
           id="tspan4625-1"
           sodipodi:role="line">Preheat</tspan></text>
    </g>
    <g
       id="g5094"
       transform="translate(-184.95051,-41.694047)">
      <rect
         y="617.65961"
         x="891.32312"
         height="103.32286"
         width="125.65821"
         id="rect4591-1-1"
         style="fill:#b3b3b3;stroke:#000000;stroke-width:5.06547928;stroke-miterlimit:4;stroke-dasharray:none;stroke-opacity:1" />
      <g
         id="g5087">
        <rect
           style="fill:#008080;stroke:#000000;stroke-width:9.03411579;stroke-miterlimit:4;stroke-dasharray:none;stroke-opacity:1"
           id="rect4685-0"
           width="27.627979"
           height="79.032745"
           x="978.97687"
           y="628.03607" />
        <text
           xml:space="preserve"
           style="font-style:normal;font-weight:normal;font-size:51.51258469px;line-height:1.25;font-family:sans-serif;letter-spacing:0px;word-spacing:0px;fill:#ff0000;fill-opacity:1;stroke:none;stroke-width:1.28781462"
           x="1270.2489"
           y="481.96954"
           id="text4627-7-9"
           transform="scale(0.70376855,1.4209217)"><tspan
             sodipodi:role="line"
             id="tspan4625-1-1"
             x="1270.2489"
             y="481.96954"
             style="fill:#ff0000;stroke-width:1.28781462">Flux</tspan></text>
      </g>
    </g>
    <path
       style="fill:none;stroke:#000000;stroke-width:0.26458332px;stroke-linecap:butt;stroke-linejoin:miter;stroke-opacity:1"
       d="M 69.59598,468.16667 Z"
       id="path4820"
       inkscape:connector-curvature="0" />
    <text
       xml:space="preserve"
       style="font-style:normal;font-weight:normal;font-size:10.58333302px;line-height:1.25;font-family:sans-serif;letter-spacing:0px;word-spacing:0px;fill:#800000;fill-opacity:1;stroke:none;stroke-width:0.26458332"
       x="87.110451"
       y="493.04828"
       id="text4877-1"><tspan
         sodipodi:role="line"
         id="tspan4875-7"
         x="87.110451"
         y="493.04828"
         style="font-size:50.79999924px;fill:#800000;stroke-width:0.26458332">Y1</tspan></text>
    <g
       id="g5125"
       transform="translate(-209.53931,-48.108515)">
      <rect
         y="577.83417"
         x="372.36044"
         height="340.79538"
         width="125.79538"
         id="rect4591"
         style="fill:#4d4d4d;stroke:#000000;stroke-width:9.20462418;stroke-miterlimit:4;stroke-dasharray:none;stroke-opacity:1" />
      <rect
         y="590.65875"
         x="431.08466"
         height="343.00879"
         width="3.9957492"
         id="rect4591-0-2-9"
         style="fill:#ffff00;stroke:#00ffff;stroke-width:1.64580607;stroke-miterlimit:4;stroke-dasharray:none;stroke-opacity:1" />
      <text
         transform="matrix(0,0.52375414,-1.9092928,0,0,0)"
         id="text4627"
         y="-210.37541"
         x="1272.5048"
         style="font-style:normal;font-weight:normal;font-size:51.62096024px;line-height:1.25;font-family:sans-serif;letter-spacing:0px;word-spacing:0px;fill:#ff0000;fill-opacity:1;stroke:none;stroke-width:1.29052401"
         xml:space="preserve"><tspan
           style="fill:#ff0000;stroke-width:1.29052401"
           y="-210.37541"
           x="1272.5048"
           id="tspan4625"
           sodipodi:role="line">JDEC TRAY</tspan></text>
      <rect
         y="587.90753"
         x="481.78732"
         height="348.51132"
         width="9.4982758"
         id="rect4591-0-6"
         style="fill:#008000;stroke:#000000;stroke-width:2.55774808;stroke-miterlimit:4;stroke-dasharray:none;stroke-opacity:1" />
      <rect
         y="588.97656"
         x="385.57025"
         height="348.51132"
         width="9.4982758"
         id="rect4591-0-6-0"
         style="fill:#008000;stroke:#000000;stroke-width:2.55774832;stroke-miterlimit:4;stroke-dasharray:none;stroke-opacity:1" />
      <text
         id="text4877-1-4"
         y="627.81415"
         x="441.35477"
         style="font-style:normal;font-weight:normal;font-size:10.58333302px;line-height:1.25;font-family:sans-serif;letter-spacing:0px;word-spacing:0px;fill:#ffff00;fill-opacity:1;stroke:none;stroke-width:0.26458332"
         xml:space="preserve"><tspan
           style="font-size:50.79999924px;fill:#ffff00;stroke-width:0.26458332"
           y="627.81415"
           x="441.35477"
           id="tspan4875-7-4"
           sodipodi:role="line">Y2</tspan></text>
    </g>
    <rect
       style="fill:#ff00ff;stroke:#00ffff;stroke-width:2.23653364;stroke-miterlimit:4;stroke-dasharray:none;stroke-opacity:1"
       id="rect4591-0-2-0"
       width="3.4050217"
       height="743.32233"
       x="865.23029"
       y="-856.59406"
       transform="rotate(90)" />
    <rect
       style="fill:#ff00ff;stroke:#00ffff;stroke-width:2.23653388;stroke-miterlimit:4;stroke-dasharray:none;stroke-opacity:1"
       id="rect4591-0-2-0-9"
       width="3.4050217"
       height="743.32233"
       x="520.98712"
       y="-859.26666"
       transform="rotate(90)" />
    <text
       xml:space="preserve"
       style="font-style:normal;font-weight:normal;font-size:10.58333302px;line-height:1.25;font-family:sans-serif;letter-spacing:0px;word-spacing:0px;fill:#00ffff;fill-opacity:1;stroke:none;stroke-width:0.26458332;"
       x="436.0094"
       y="910.05066"
       id="text4877-1-2"><tspan
         sodipodi:role="line"
         id="tspan4875-7-2"
         x="436.0094"
         y="910.05066"
         style="font-size:50.79999924px;fill:#00ffff;stroke-width:0.26458332;">X</tspan></text>
    <g
       id="g5132"
       transform="translate(-209.53931,-48.108515)">
      <rect
         y="576.67181"
         x="326.2261"
         height="342.11765"
         width="9.5190735"
         id="rect4591-0"
         style="fill:#008000;stroke:#000000;stroke-width:2.53695035;stroke-miterlimit:4;stroke-dasharray:none;stroke-opacity:1" />
      <rect
         y="752.33002"
         x="316.93378"
         height="21.804323"
         width="25.965336"
         id="rect4591-8"
         style="fill:#00ff00;stroke:#000000;stroke-width:1.05777943;stroke-miterlimit:4;stroke-dasharray:none;stroke-opacity:1" />
      <rect
         y="572.4845"
         x="328.45316"
         height="343.00879"
         width="3.9957492"
         id="rect4591-0-2"
         style="fill:#800000;stroke:#00ffff;stroke-width:1.64580607;stroke-miterlimit:4;stroke-dasharray:none;stroke-opacity:1" />
      <text
         id="text4877-1-7"
         y="779.62317"
         x="270.30225"
         style="font-style:normal;font-weight:normal;font-size:10.58333302px;line-height:1.25;font-family:sans-serif;letter-spacing:0px;word-spacing:0px;fill:#00ff00;fill-opacity:1;stroke:none;stroke-width:0.26458332"
         xml:space="preserve"><tspan
           style="font-size:50.79999924px;fill:#00ff00;stroke-width:0.26458332"
           y="779.62317"
           x="270.30225"
           id="tspan4875-7-3"
           sodipodi:role="line">Z</tspan></text>
    </g>
    <g
       id="g5206-5"
       transform="matrix(1.4065348,0,0,0.21266645,-557.25069,291.4009)">
      <rect
         y="201.76591"
         x="1111.1562"
         height="258.46735"
         width="248.46733"
         id="rect4540-0-0"
         style="fill:#000080;stroke:#000000;stroke-width:1.53266585;stroke-miterlimit:4;stroke-dasharray:none;stroke-opacity:1" />
      <text
         transform="scale(0.44602332,2.2420352)"
         id="text4627-9-1-8-0"
         y="183.37894"
         x="2776.1501"
         style="font-style:normal;font-weight:normal;font-size:106.77908325px;line-height:1.25;font-family:sans-serif;letter-spacing:0px;word-spacing:0px;fill:#ff0000;fill-opacity:1;stroke:none;stroke-width:2.66947675"
         xml:space="preserve"><tspan
           id="tspan4647-9-3-5"
           style="text-align:center;text-anchor:middle;fill:#ff0000;stroke-width:2.66947675"
           y="183.37894"
           x="2776.1501"
           sodipodi:role="line">Monitor</tspan></text>
    </g>
    <g
       id="g5206-5-0"
       transform="matrix(1.2095674,0,0,0.21290241,-323.54094,759.04447)">
      <rect
         y="130.81931"
         x="1073.3171"
         height="535.93964"
         width="306.32657"
         id="rect4540-0-0-4"
         style="fill:#000080;stroke:#000000;stroke-width:2.45053148;stroke-miterlimit:4;stroke-dasharray:none;stroke-opacity:1" />
      <text
         transform="scale(0.44602332,2.2420352)"
         id="text4627-9-1-8-0-8"
         y="210.25513"
         x="2760.2969"
         style="font-style:normal;font-weight:normal;font-size:106.77908325px;line-height:1.25;font-family:sans-serif;letter-spacing:0px;word-spacing:0px;fill:#ff0000;fill-opacity:1;stroke:none;stroke-width:2.66947675"
         xml:space="preserve"><tspan
           id="tspan4647-9-3-5-1"
           style="text-align:center;text-anchor:middle;fill:#ff0000;stroke-width:2.66947675"
           y="210.25513"
           x="2760.2969"
           sodipodi:role="line">Keyboard</tspan></text>
      <rect
         y="734.87262"
         x="1302.5171"
         height="538.00171"
         width="83.172897"
         id="rect4540-0-0-4-3"
         style="fill:#000080;stroke:#000000;stroke-width:1.27935994;stroke-miterlimit:4;stroke-dasharray:none;stroke-opacity:1" />
      <text
         transform="scale(0.21474294,4.6567306)"
         id="text4627-9-1-8-0-8-0"
         y="258.08035"
         x="6254.4712"
         style="font-style:normal;font-weight:normal;font-size:115.33734894px;line-height:1.25;font-family:sans-serif;letter-spacing:0px;word-spacing:0px;fill:#ff0000;fill-opacity:1;stroke:none;stroke-width:2.88343358"
         xml:space="preserve"><tspan
           id="tspan4647-9-3-5-1-4"
           style="text-align:center;text-anchor:middle;fill:#ff0000;stroke-width:2.88343358"
           y="258.08035"
           x="6254.4712"
           sodipodi:role="line">Mouse</tspan></text>
    </g>
    <g
       id="g5231-2"
       transform="matrix(0.80809965,0,0,0.48035464,-345.18039,125.96942)">
      <g
         id="g5366"
         transform="translate(-6.6147666,-31.158424)">
        <rect
           style="fill:#000080;stroke:#000000;stroke-width:1.93802524;stroke-miterlimit:4;stroke-dasharray:none;stroke-opacity:1"
           id="rect4540-7"
           width="368.99835"
           height="278.27518"
           x="1285.2699"
           y="429.69571" />
        <text
           xml:space="preserve"
           style="font-style:normal;font-weight:normal;font-size:62.1089592px;line-height:1.25;font-family:sans-serif;letter-spacing:0px;word-spacing:0px;fill:#ff0000;fill-opacity:1;stroke:none;stroke-width:1.55272388"
           x="2116.2124"
           y="377.80579"
           id="text4627-9-1-0"
           transform="scale(0.6903021,1.4486411)"><tspan
             id="tspan5356"
             sodipodi:role="line"
             x="2127.1299"
             y="377.80579"
             style="text-align:center;text-anchor:middle;fill:#ff0000;stroke-width:1.55272388">Controls </tspan><tspan
             id="tspan5360"
             sodipodi:role="line"
             x="2116.2124"
             y="455.44199"
             style="text-align:center;text-anchor:middle;fill:#ff0000;stroke-width:1.55272388">Case</tspan></text>
      </g>
    </g>
  </g>
</svg>
